module github.com/dapr/dapr/tests/apps/pluggable_redis

go 1.19

require (
	github.com/dapr-sandbox/components-go-sdk v0.0.0-20220913223951-edf6740c94e8
	github.com/dapr/components-contrib v1.8.0-rc.1.0.20220901165827-19341e5a0ff4
	github.com/dapr/kit v0.0.2
)

require (
	github.com/agrea/ptr v0.0.0-20180711073057-77a518d99b7b // indirect
	github.com/cespare/xxhash/v2 v2.1.2 // indirect
	github.com/dapr/dapr v1.8.4-0.20220909163359-efaca389cc32 // indirect
	github.com/dgryski/go-rendezvous v0.0.0-20200823014737-9f7001d12a5f // indirect
	github.com/go-redis/redis/v8 v8.11.5 // indirect
	github.com/golang/protobuf v1.5.2 // indirect
	github.com/json-iterator/go v1.1.12 // indirect
	github.com/mitchellh/mapstructure v1.5.1-0.20220423185008-bf980b35cac4 // indirect
	github.com/modern-go/concurrent v0.0.0-20180306012644-bacd9c7ef1dd // indirect
	github.com/modern-go/reflect2 v1.0.2 // indirect
	github.com/pkg/errors v0.9.1 // indirect
	github.com/sirupsen/logrus v1.9.0 // indirect
	golang.org/x/net v0.0.0-20220630215102-69896b714898 // indirect
	golang.org/x/sys v0.0.0-20220715151400-c0bba94af5f8 // indirect
	golang.org/x/text v0.3.7 // indirect
	google.golang.org/genproto v0.0.0-20220622171453-ea41d75dfa0f // indirect
	google.golang.org/grpc v1.47.0 // indirect
	google.golang.org/protobuf v1.28.0 // indirect
)
